{
  "name": "BrandListPerPage",
  "description": "Retrieves all Brands registered in the store's Catalog by page number.\r\n## Response body example\r\n\r\n```json\r\n{\r\n  \"items\": [\r\n    {\r\n      \"id\": 2000000,\r\n      \"name\": \"Farm\",\r\n      \"isActive\": true,\r\n      \"title\": \"Farm\",\r\n      \"metaTagDescription\": \"Farm\",\r\n      \"imageUrl\": null\r\n    },\r\n    {\r\n      \"id\": 2000001,\r\n      \"name\": \"Adidas\",\r\n      \"isActive\": true,\r\n      \"title\": \"\",\r\n      \"metaTagDescription\": \"\",\r\n      \"imageUrl\": null\r\n    },\r\n    {\r\n      \"id\": 2000002,\r\n      \"name\": \"Brastemp\",\r\n      \"isActive\": true,\r\n      \"title\": \"Brastemp\",\r\n      \"metaTagDescription\": \"Brastemp\",\r\n      \"imageUrl\": null\r\n    }\r\n  ],\r\n    \"paging\": {\r\n      \"page\": 1,\r\n        \"perPage\": 3,\r\n          \"total\": 6,\r\n            \"pages\": 2\r\n    }\r\n}\r\n```",
  "parameters": {
    "type": "object",
    "properties": {
      "Content-Type": {
        "default": "application/json",
        "type": "string",
        "description": "Describes the type of the content being sent."
      },
      "Accept": {
        "default": "application/json",
        "type": "string",
        "description": "HTTP Client Negotiation _Accept_ Header. Indicates the types of responses the client can understand."
      },
      "pageSize": {
        "example": 5,
        "type": "integer",
        "description": "Quantity of brands per page."
      },
      "page": {
        "example": 1,
        "type": "integer",
        "description": "Page number of the brand list."
      }
    },
    "required": [
      "Content-Type",
      "Accept",
      "pageSize",
      "page"
    ]
  },
  "handler": "http",
  "request": {
    "method": "GET",
    "url": {
      "$uri": "https://vtex.local/api/catalog_system/pvt/brand/pagedlist{?pageSize,page}"
    },
    "headers": {
      "Content-Type": {
        "$": "Content-Type"
      },
      "Accept": {
        "$": "Accept"
      }
    }
  },
  "responses": {
    "200": {
      "$encode": "markdown",
      "$block": [
        {
          "$h1": ""
        },
        "**Key properties:**",
        {
          "$ul": [
            "**items**: Array of objects with information of the store's brands.",
            [
              "**paging**: Object with pagination information.",
              {
                "$ul": [
                  "**page**: Page number of the brand list.",
                  "**pages**: Total number of pages.",
                  "**perPage**: Quantity of brands per page.",
                  "**total**: Total of brands in the store."
                ]
              }
            ]
          ]
        },
        {
          "$lang": "json",
          "$code": {
            "$encode": "json",
            "$indent": true,
            "$content": {
              "$": "$.body"
            }
          }
        }
      ]
    }
  }
}
